{
  "@context": {
    "cc": "http://creativecommons.org/ns#",
    "schema": "http://schema.org/",
    "cred": "https://www.w3.org/2018/credentials#",
    "void": "http://rdfs.org/ns/void#",
    "owl": "http://www.w3.org/2002/07/owl#",
    "xsd": "http://www.w3.org/2001/XMLSchema#",
    "gax-validation": "http://w3id.org/gaia-x/validation#",
    "skos": "http://www.w3.org/2004/02/skos/core#",
    "voaf": "http://purl.org/vocommons/voaf#",
    "rdfs": "http://www.w3.org/2000/01/rdf-schema#",
    "vcard": "http://www.w3.org/2006/vcard/ns#",
    "gax-core": "http://w3id.org/gaia-x/core#",
    "dct": "http://purl.org/dc/terms/",
    "sh": "http://www.w3.org/ns/shacl#",
    "gax-trust-framework": "http://w3id.org/gaia-x/gax-trust-framework#",
    "rdf": "http://www.w3.org/1999/02/22-rdf-syntax-ns#",
    "ids": "https://w3id.org/idsa/core/",
    "dcat": "http://www.w3.org/ns/dcat#",
    "vann": "http://purl.org/vocab/vann/",
    "foaf": "http://xmlns.com/foaf/0.1/",
    "did": "https://www.w3.org/TR/did-core/#"
  },
  "@id": "did:web:cloudandheat.com/image-fedora-33",
  "@type": "gax-trust-framework:VmImage",
  "gax-trust-framework:name": {
    "@value": "Fedora 33 x86_64",
    "@type": "xsd:string"
  },
  "gax-trust-framework:format": {
    "@value": "Bare",
    "@type": "xsd:string"
  },
  "gax-trust-framework:diskFormat": {
    "@value": "RAW",
    "@type": "xsd:string"
  },
  "gax-trust-framework:version": {
    "@value": "33",
    "@type": "xsd:string"
  },
  "gax-trust-framework:licence": {
    "@value": "httpss://wwww.gnu.org/licences/gpl-3.0.html",
    "@type": "xsd:string"
  },  
  "gax-trust-framework:policy": {
    "@value": "...",
    "@type": "xsd:string"
  },
  "gax-trust-framework:ramSize": {
    "@type": "gax-trust-framework:Measure",
    "gax-trust-framework:value": {
      "@value": "512",
      "@type": "xsd:float"
    },
    "gax-trust-framework:unit": {
      "@value": "MB",
      "@type": "xsd:string"
    }
  },
  "gax-trust-framework:fileSize": {
    "@type": "gax-trust-framework:Measure",
    "gax-trust-framework:value": {
      "@value": "4",
      "@type": "xsd:float"
    },
    "gax-trust-framework:unit": {
      "@value": "GB",
      "@type": "xsd:string"
    }
  },
  "gax-trust-framework:checksum": {
    "@type": "gax-trust-framework:CheckSum",
    "gax-trust-framework:sum": {
      "@value": "679c8ca014cb3ad1a20410a4f908d23f",
      "@type": "xsd:float"
    },
    "gax-trust-framework:algorithm": {
      "@value": "sha512",
      "@type": "xsd:string"
    }
  },
  "gax-trust-framework:CpuReq": {
    "@type": "gax-trust-framework:CPU",
    "gax-trust-framework:cpuArchitecture": {
      "@value": "x86-64",
      "@type": "xsd:string"
    }
  }    
}




