{
  "@context": {
    "dct": "http://purl.org/dc/terms/",
    "dcat": "http://www.w3.org/ns/dcat#" ,
    "foaf": "http://xmlns.com/foaf/0.1/",
    "ids": "https://w3id.org/idsa/core/",
    "owl": "http://www.w3.org/2002/07/owl#",
    "rdf": "http://www.w3.org/1999/02/22-rdf-syntax-ns#",
    "rdfs": "http://www.w3.org/2000/01/rdf-schema#",
    "schema": "http://schema.org/",
    "vcard": "https://www.w3.org/2006/vcard/ns#",
    "xsd": "http://www.w3.org/2001/XMLSchema#",
    "gax-participant": "http://w3id.org/gaia-x/participant#",
    "gax-service": "http://w3id.org/gaia-x/service#",
    "gax-core": "http://w3id.org/gaia-x/core#" ,
    "ex": "http://example.org/"
  },
  "@id": "ex:GaiaXHackathon2Registration",
  "@type": "gax-service:ServiceOffering",
  "gax-service:ServiceTitle": "Gaia-X Hackathon #2 Registration",
  "gax-service:Version": "1.0",
  "gax-service:providedBy": {
    "@id": "ex:ACMEProvider",
    "@type": "gax-participant:LegalPerson"
  },
  "gax-participant:MarketingImage": {
    "@value": "https://mautic.cloudandheat.com/media/images/apple-touch-icon.png?v9026a30f",
    "@type": "xsd:anyURI"
  },
  "dcat:keyword": [
    "Gaia-X",
    "Hackathon",
    "Registration",
    "#2"
  ],
  "gax-service:dependsOn": {
    "@value": "https://www.mautic.org/",
    "@type": "xsd:anyURI"
  },
  "dct:description": "This service can be used to register for the Gaia-X Hackathon #2, which runs from 02-12-2021 to 03-12-2021.",
  "dct:modified": {
    "@value": "2021-11-11T15:00:00+00:00",
    "@type": "xsd:dateTimeStamp"
  },
  "gax-service:ProvisionType": "---",
  "gax-service:ServiceModel": "---",
  "gax-service:WebAddress": {
    "@value": "https://gitlab.com/gaia-x/gaia-x-community/gx-hackathon/gx-hackathon-2",
    "@type": "xsd:anyURI"
  },
  "gax-service:termsAndConditions": {
    "@type": "gax-core:TermsAndConditions",
      "gax-core:content": {
        "@value": "https://mautic.cloudandheat.com/tac.pdf",
        "@type": "xsd:anyURI"
      },
    "gax-core:hash": "ba7816bf8f01cfea414140de5dae2223b00361a396177a9cb410ff61f20015ad"
  },
  "gax-service:dataExport": {
    "@type": "gax-core:DataExport",
    "gax-core:requestType": "API",
    "gax-core:accessType": "digital",
    "gax-core:formatType": "application/json"
  },
  "gax-service:endpoint": {
    "@type": "gax-service:Endpoint",
    "EndPointURL": "https://mautic.cloudandheat.com",
    "StandardConformity": "(reference to standard)",
    "EndpointDescription": "https://mautic.cloudandheat.com"
  }
}
