{
      "@id":"http://example.edu/verifiablePresentation/1",
      "@context": [
         "https://www.w3.org/2018/credentials/v1",
         "https://www.example.org/myExampleContextDefiningTermsSuchAsParticipantClaim1andClaim2"
      ],
      "type":[
         "VerifiablePresentation"
      ],
      "issuer":"https://example.edu/issuers/565049",
      "issuanceDate":"2010-01-01T00:00:00Z",
      "verifiableCredential":[
         {
            "@id":"http://example.edu/verifiableCred/1",
            "type":[
               "VerifiableCredential"
            ],
            "issuer":"https://example.edu/issuers/565049",
            "issuanceDate":"2010-01-01T00:00:00Z",
            "credentialSubject":[
               {
                  "@id":"did:example:cred1",
                  "type":"Participant",
                  "claim1":{
                     "@value":"foo",
                     "@type":"xsd:string"
                  },
                  "claim2":{
                     "@value":"bar",
                     "@type":"xsd:string"
                  }
               },
               {
                  "id":"did:example:cred2",
                  "type":"ServiceOffering",
                  "claim1":{
                     "@value":"foo",
                     "@type":"xsd:string"
                  },
                  "claim2":{
                     "@value":"bar",
                     "@type":"xsd:string"
                  }
               }
            ],
            "proof":{
               "type":"JsonWebSignature2020",
               "created":"2022-02-25T14:58:43Z",
               "verificationMethod":"https://example.edu/issuers/565049#key-1",
               "proofPurpose":"assertionMethod",
					"jws":"For example 'XXX'. In reality, we would need an actual signature – otherwise verification will fail"
            }
         },
         {
            "@id":"http://example.edu/VerifiableCred/2"
         }
      ],
      "proof":{
         "type":"JsonWebSignature2020",
         "created":"2022-02-25T14:58:43Z",
         "verificationMethod":"https://example.edu/issuers/565049#key-1",
         "proofPurpose":"assertionMethod",
			"jws":"For example 'XXX'. In reality, we would need an actual signature – otherwise verification will fai"
   }
}
